{
  "version": "3.0",
  "vulnerabilities": [
    {
      "id": "ff242d4b29aa1113a3d2bb16259253f4e03e6f21fb2cc79297b4d820befcb560",
      "category": "sast",
      "name": "Key Exchange without Entity Authentication",
      "message": "Use of ssh InsecureIgnoreHostKey should be audited",
      "description": "The software performs a key exchange with an actor without verifying the identity of that actor.",
      "cve": "foo.go:8:7: func foo() {\n8: \t_ = ssh.InsecureIgnoreHostKey()\n9: }\n:CWE-322",
      "severity": "Medium",
      "confidence": "High",
      "scanner": {
        "id": "gosec",
        "name": "Gosec"
      },
      "location": {
        "file": "foo.go",
        "start_line": 8
      },
      "identifiers": [
        {
          "type": "gosec_rule_id",
          "name": "Gosec Rule ID G106",
          "value": "G106"
        },
        {
          "type": "CWE",
          "name": "CWE-322",
          "value": "322",
          "url": "https://cwe.mitre.org/data/definitions/322.html"
        }
      ]
    },
    {
      "id": "af561110c010315a3e1aba0174ec5d8025c43a2eff7089e211e9ed2aac4060c3",
      "category": "sast",
      "name": "Improper Neutralization of Input During Web Page Generation ('Cross-site Scripting')",
      "message": "this method will not auto-escape HTML. Verify data is well formed.",
      "description": "The software does not neutralize or incorrectly neutralizes user-controllable input before it is placed in output that is used as a web page that is served to other users.",
      "cve": "main.go:20:19: \t\t\"Title\": \"Test <b>World</b>\",\n20: \t\t\"Body\":  template.HTML(a),\n21: \t}\n:CWE-79",
      "severity": "Medium",
      "confidence": "Low",
      "scanner": {
        "id": "gosec",
        "name": "Gosec"
      },
      "location": {
        "file": "main.go",
        "start_line": 20
      },
      "identifiers": [
        {
          "type": "gosec_rule_id",
          "name": "Gosec Rule ID G203",
          "value": "G203"
        },
        {
          "type": "CWE",
          "name": "CWE-79",
          "value": "79",
          "url": "https://cwe.mitre.org/data/definitions/79.html"
        }
      ]
    },
    {
      "id": "d7d54248170f34fd6f846ad24c51e67370c825797d504359307b1d29b9e81b8b",
      "category": "sast",
      "name": "Improper Check or Handling of Exceptional Conditions",
      "message": "Errors unhandled.",
      "description": "The software does not properly anticipate or handle exceptional conditions that rarely occur during normal operation of the software.",
      "cve": "main.go:22:21: \t}\n22: \tt.Execute(os.Stdout, v)\n23: \tz := new(big.Int)\n:CWE-703",
      "severity": "Low",
      "confidence": "High",
      "scanner": {
        "id": "gosec",
        "name": "Gosec"
      },
      "location": {
        "file": "main.go",
        "start_line": 22
      },
      "identifiers": [
        {
          "type": "gosec_rule_id",
          "name": "Gosec Rule ID G104",
          "value": "G104",
          "url": "https://securego.io/docs/rules/g104.html"
        },
        {
          "type": "CWE",
          "name": "CWE-703",
          "value": "703",
          "url": "https://cwe.mitre.org/data/definitions/703.html"
        }
      ]
    }
  ],
  "remediations": [],
  "scan": {
    "scanner": {
      "id": "gosec",
      "name": "Gosec",
      "url": "https://github.com/securego/gosec",
      "vendor": {
        "name": "GitLab"
      },
      "version": "2.3.0"
    },
    "type": "sast",
    "status": "success",
    "start_time": "placeholder-value",
    "end_time": "placeholder-value"
  }
}
